sd_io_wrap.vcd
$date
	Sun Jul 16 21:13:58 2017
$end
$version
	Icarus Verilog
$end
$timescale
	1s
$end
$scope module sd_io_wrap_tb $end
$var wire 1 ! BUSre $end
$var wire 16 " BUSread [15:0] $end
$var reg 8 # BUSaddr [7:0] $end
$var reg 1 $ BUSwe $end
$var reg 16 % BUSwrite [15:0] $end
$var reg 1 & clk $end
$var reg 1 ' reset $end
$scope module U0 $end
$var wire 1 ( SDwe $end
$var wire 1 ) bus_grant $end
$var wire 1 & clk $end
$var wire 8 * i_IO_addr [7:0] $end
$var wire 16 + i_IO_data [15:0] $end
$var wire 1 ! i_IO_re $end
$var wire 1 $ i_IO_we $end
$var wire 1 , i_miso $end
$var wire 1 ' reset $end
$var wire 1 - o_sck $end
$var wire 1 . o_mosi $end
$var wire 1 / o_int $end
$var wire 1 0 o_cs_n $end
$var wire 16 1 o_IO_data [15:0] $end
$var wire 1 2 ena $end
$var wire 3 3 adj_addr [2:0] $end
$var wire 32 4 SDwrite [31:0] $end
$var wire 32 5 SDresponse [31:0] $end
$var wire 2 6 SDaddr [1:0] $end
$var reg 16 7 SDr_high [15:0] $end
$var reg 16 8 SDr_low [15:0] $end
$var reg 16 9 SDw_high [15:0] $end
$var reg 16 : SDw_low [15:0] $end
$scope module sd $end
$var wire 1 ; cmd_stb $end
$var wire 1 ) i_bus_grant $end
$var wire 1 & i_clk $end
$var wire 1 , i_miso $end
$var wire 2 < i_wb_addr [1:0] $end
$var wire 1 2 i_wb_cyc $end
$var wire 32 = i_wb_data [31:0] $end
$var wire 1 2 i_wb_stb $end
$var wire 1 ( i_wb_we $end
$var wire 4 > max_lgblklen [3:0] $end
$var wire 1 ? need_reset $end
$var wire 1 @ o_wb_stall $end
$var wire 1 A wb_stb $end
$var wire 1 B write_stb $end
$var wire 9 C w_blklimit [8:0] $end
$var wire 1 - o_sck $end
$var wire 1 . o_mosi $end
$var wire 32 D o_debug [31:0] $end
$var wire 1 0 o_cs_n $end
$var wire 1 E ll_out_stb $end
$var wire 8 F ll_out_dat [7:0] $end
$var wire 1 G ll_idle $end
$var wire 8 H cmd_crc [7:0] $end
$var reg 1 I clear_fifo_crc $end
$var reg 8 J fifo_a_byte [7:0] $end
$var reg 32 K fifo_a_reg [31:0] $end
$var reg 8 L fifo_b_byte [7:0] $end
$var reg 32 M fifo_b_reg [31:0] $end
$var reg 8 N fifo_byte [7:0] $end
$var reg 1 O fifo_crc_err $end
$var reg 4 P fifo_rd_crc_count [3:0] $end
$var reg 16 Q fifo_rd_crc_reg [15:0] $end
$var reg 1 R fifo_rd_crc_stb $end
$var reg 7 S fifo_wb_addr [6:0] $end
$var reg 4 T fifo_wr_crc_count [3:0] $end
$var reg 16 U fifo_wr_crc_reg [15:0] $end
$var reg 1 V fifo_wr_crc_stb $end
$var reg 1 W last_fifo_byte $end
$var reg 8 X ll_cmd_dat [7:0] $end
$var reg 1 Y ll_cmd_stb $end
$var reg 9 Z ll_fifo_addr [8:0] $end
$var reg 3 [ ll_fifo_pkt_state [2:0] $end
$var reg 1 \ ll_fifo_rd $end
$var reg 1 ] ll_fifo_rd_complete $end
$var reg 1 ^ ll_fifo_wr $end
$var reg 1 _ ll_fifo_wr_complete $end
$var reg 2 ` ll_fifo_wr_state [1:0] $end
$var reg 1 a nonzero_out $end
$var reg 1 / o_int $end
$var reg 1 b o_wb_ack $end
$var reg 32 c o_wb_data [31:0] $end
$var reg 1 d pre_cmd_state $end
$var reg 1 e pre_fifo_a_wr $end
$var reg 1 f pre_fifo_addr_inc_rd $end
$var reg 1 g pre_fifo_addr_inc_wr $end
$var reg 1 h pre_fifo_b_wr $end
$var reg 1 i pre_fifo_crc_a $end
$var reg 1 j pre_fifo_crc_b $end
$var reg 1 k pre_rsp_state $end
$var reg 1 l q_busy $end
$var reg 7 m r_blklimit [6:0] $end
$var reg 1 n r_cmd_busy $end
$var reg 8 o r_cmd_crc [7:0] $end
$var reg 4 p r_cmd_crc_cnt [3:0] $end
$var reg 1 q r_cmd_crc_ff $end
$var reg 1 r r_cmd_crc_stb $end
$var reg 1 s r_cmd_err $end
$var reg 2 t r_cmd_resp [1:0] $end
$var reg 1 u r_cmd_sent $end
$var reg 3 v r_cmd_state [2:0] $end
$var reg 2 w r_data_fil [1:0] $end
$var reg 32 x r_data_reg [31:0] $end
$var reg 1 y r_fifo_id $end
$var reg 1 z r_fifo_wr $end
$var reg 1 { r_have_data_response_token $end
$var reg 1 | r_have_resp $end
$var reg 1 } r_have_start_token $end
$var reg 8 ~ r_last_r_one [7:0] $end
$var reg 4 !" r_lgblklen [3:0] $end
$var reg 3 "" r_rsp_state [2:0] $end
$var reg 7 #" r_sdspi_clk [6:0] $end
$var reg 1 $" r_use_fifo $end
$var reg 26 %" r_watchdog [25:0] $end
$var reg 1 &" r_watchdog_err $end
$var reg 1 '" ready_for_response_token $end
$var reg 3 (" second_rsp_state [2:0] $end
$scope module lowlevel $end
$var wire 1 )" byte_accepted $end
$var wire 1 ) i_bus_grant $end
$var wire 8 *" i_byte [7:0] $end
$var wire 1 & i_clk $end
$var wire 1 n i_cs $end
$var wire 1 , i_miso $end
$var wire 7 +" i_speed [6:0] $end
$var wire 1 Y i_stb $end
$var wire 1 G o_idle $end
$var reg 8 ," o_byte [7:0] $end
$var reg 1 0 o_cs_n $end
$var reg 1 . o_mosi $end
$var reg 1 - o_sclk $end
$var reg 1 E o_stb $end
$var reg 8 -" r_byte [7:0] $end
$var reg 7 ." r_clk_counter [6:0] $end
$var reg 1 /" r_idle $end
$var reg 8 0" r_ireg [7:0] $end
$var reg 4 1" r_state [3:0] $end
$var reg 1 2" r_z_counter $end
$upscope $end
$upscope $end
$upscope $end
$upscope $end
$enddefinitions $end
#0
$dumpvars
12"
b0 1"
bx 0"
x/"
b0 ."
bx -"
bx ,"
b1100011 +"
bx *"
0)"
bx ("
x'"
0&"
b11111111111111111111111111 %"
0$"
b1100011 #"
b0 ""
b111 !"
b11111111 ~
x}
x|
x{
xz
xy
b0 x
b0 w
b0 v
xu
bx t
0s
xr
0q
bx p
bx o
0n
bx m
1l
xk
xj
xi
xh
0g
0f
xe
xd
bx c
xb
xa
bx `
x_
0^
x]
0\
bx [
bx Z
0Y
bx X
0W
xV
bx U
bx T
bx S
xR
bx Q
bx P
0O
bx N
bx M
bx L
bx K
bx J
xI
bx1 H
0G
bx F
xE
bx00xxxxz00010000xxxxxxxxxxxxxxxx D
bx11 C
xB
xA
0@
0?
b111 >
b0 =
bx <
x;
b0 :
b0 9
bx 8
bx 7
bx 6
bx 5
b0 4
bx 3
x2
bx 1
x0
x/
x.
x-
z,
bx +
bx *
1)
x(
1'
0&
bx %
x$
bx #
bx "
z!
$end
#5
b1 H
1-
0/"
10
b11xz00010000xxxxxxxxxxxxxxxx D
0E
0r
b0 t
0|
0d
0'"
0{
b10 ("
0u
0l
1/
b0 Z
0}
0I
0j
0i
0V
0h
0e
b0 `
0_
1]
b111 [
0R
b0 U
b0 P
b0 Q
b1111 p
b0 o
b1111111111111111111111 %"
b111111111 C
b1111111 m
1&
#10
bx 7
bx 8
0&
#15
0/
0k
b111 ("
1&
#20
b1001 4
b1001 =
b1001 :
1B
1A
1(
12
0;
b11 3
b1 6
b1 <
0&
1$
b1001 %
b1001 +
b10100110 #
b10100110 *
0'
#25
b1001 x
b0 5
b0 c
1b
1&
#30
b0 "
b0 1
b0 7
b0 8
0&
#35
b1001 5
b1001 c
1&
#40
b1001 "
b1001 1
b1001 8
b11111111 4
b11111111 =
b11111111 :
1;
b1 3
b0 6
b0 <
0&
b11111111 %
b11111111 +
b10100010 #
b10100010 *
#45
b1110000011101100011 x
b11xz0001000011111111xxxxxxxx D
b11111111 X
b11111111 *"
0y
b1001 #"
b1001 +"
b0x0x0011111111 5
b0x0x0011111111 c
b0 S
1R
0]
b0 [
1&
#50
b0x0x0011111111 "
b0x0x0011111111 1
b0x0x0011111111 8
0&
#55
1R
b0x0011111111 5
b0x0011111111 c
b1100011 #"
b1100011 +"
b1110000011100001001 x
1&
#60
b0x0011111111 "
b0x0011111111 1
b0x0011111111 8
b0 4
b0 =
b0 :
0;
b11 3
b1 6
b1 <
0&
b0 %
b0 +
b10100110 #
b10100110 *
#65
b0 x
b1110000011100001001 5
b1110000011100001001 c
1]
b111 [
0R
1&
#70
b11100001001 "
b11100001001 1
b111 7
b11100001001 8
0&
#75
b0 5
b0 c
1&
#80
b0 "
b0 1
b0 7
b0 8
b1000000 4
b1000000 =
b1000000 :
1;
b1 3
b0 6
b0 <
0&
b1000000 %
b1000000 +
b10100010 #
b10100010 *
#85
0;
0z
1r
1Y
1n
b10011xz0001000101000000xxxxxxxx D
b1000000 X
b1000000 *"
b0x0011111111 5
b0x0011111111 c
1R
0]
b0 [
1&
#90
b0x0011111111 "
b0x0011111111 1
b0x0011111111 8
0&
#95
1)"
b1000001 H
1G
b1111111111111111111110 %"
b111 p
b1000000 o
b1000 P
bx00000000 Q
0R
1l
b100000011111111 5
b100000011111111 c
0r
1/"
b111001xz0001000101000000xxxxxxxx D
00
1&
#100
b100000011111111 "
b100000011111111 1
b100000011111111 8
0&
#105
0)"
0G
b10000001 H
b1100011 ."
02"
b100010z0001000101000000xxxxxxxx D
0.
0/"
b11 1"
b1000000 -"
1d
bx000000000 Q
b111 P
b10000000 o
b110 p
b1111111111111111111101 %"
1&
#110
0&
#115
b10011 H
b1111111111111111111100 %"
b10010 o
b101 p
bx0000000000 Q
b110 P
0d
1r
b0 X
b0 *"
b100010z0011000100000000xxxxxxxx D
b1 v
b1100010 ."
1&
#120
0&
#125
b100101 H
b1100001 ."
0r
bx00000000000 Q
b101 P
1q
b100100 o
b100 p
b1111111111111111111011 %"
1&
#130
0&
#135
b1001001 H
b1111111111111111111010 %"
b1001000 o
b11 p
bx000000000000 Q
b100 P
b1100000 ."
1&
#140
0&
#145
b10010001 H
b1011111 ."
bx0000000000000 Q
b11 P
b10010000 o
b10 p
b1111111111111111111001 %"
1&
#150
0&
#155
b110011 H
b1111111111111111111000 %"
b110010 o
b1 p
bx00000000000000 Q
b10 P
b1011110 ."
1&
#160
0&
#165
b1100101 H
b1011101 ."
bx000000000000000 Q
b1 P
b1100100 o
b0 p
b1111111111111111110111 %"
1&
#170
0&
#175
b11001001 H
b1111111111111111110110 %"
b11001000 o
b1111 p
b0 Q
b0 P
b1011100 ."
1&
#180
0&
#185
b1011011 ."
0q
b111 p
b1111111111111111110101 %"
1&
#190
0&
#195
b10000011 H
b1111111111111111110100 %"
b10000010 o
b110 p
b1011010 ."
1&
#200
0&
#205
b10111 H
b1011001 ."
b10110 o
b101 p
b1111111111111111110011 %"
1&
#210
0&
#215
b101101 H
b1111111111111111110010 %"
b101100 o
b100 p
b1011000 ."
1&
#220
0&
#225
b1011001 H
b1010111 ."
b1011000 o
b11 p
b1111111111111111110001 %"
1&
#230
0&
#235
b10110001 H
b1111111111111111110000 %"
b10110000 o
b10 p
b1010110 ."
1&
#240
0&
#245
b1110011 H
b1010101 ."
b1110010 o
b1 p
b1111111111111111101111 %"
1&
#250
0&
#255
b11100101 H
b1111111111111111101110 %"
b11100100 o
b0 p
b1010100 ."
1&
#260
0&
#265
b11011011 H
b1010011 ."
b11011010 o
b1111 p
b1111111111111111101101 %"
1&
#270
0&
#275
b1111111111111111101100 %"
b1010010 ."
1&
#280
0&
#285
b1010001 ."
b1111111111111111101011 %"
1&
#290
0&
#295
b1111111111111111101010 %"
b1010000 ."
1&
#300
0&
#305
b1001111 ."
b1111111111111111101001 %"
1&
#310
0&
#315
b1111111111111111101000 %"
b1001110 ."
1&
#320
0&
#325
b1001101 ."
b1111111111111111100111 %"
1&
#330
0&
#335
b1111111111111111100110 %"
b1001100 ."
1&
#340
0&
#345
b1001011 ."
b1111111111111111100101 %"
1&
#350
0&
#355
b1111111111111111100100 %"
b1001010 ."
1&
#360
0&
#365
b1001001 ."
b1111111111111111100011 %"
1&
#370
0&
#375
b1111111111111111100010 %"
b1001000 ."
1&
#380
0&
#385
b1000111 ."
b1111111111111111100001 %"
1&
#390
0&
#395
b1111111111111111100000 %"
b1000110 ."
1&
#400
0&
#405
b1000101 ."
b1111111111111111011111 %"
1&
#410
0&
#415
b1111111111111111011110 %"
b1000100 ."
1&
#420
0&
#425
b1000011 ."
b1111111111111111011101 %"
1&
#430
0&
#435
b1111111111111111011100 %"
b1000010 ."
1&
#440
0&
#445
b1000001 ."
b1111111111111111011011 %"
1&
#450
0&
#455
b1111111111111111011010 %"
b1000000 ."
1&
#460
0&
#465
b111111 ."
b1111111111111111011001 %"
1&
#470
0&
#475
b1111111111111111011000 %"
b111110 ."
1&
#480
0&
#485
b111101 ."
b1111111111111111010111 %"
1&
#490
0&
#495
b1111111111111111010110 %"
b111100 ."
1&
#500
0&
#505
b111011 ."
b1111111111111111010101 %"
1&
#510
0&
#515
b1111111111111111010100 %"
b111010 ."
1&
#520
0&
#525
b111001 ."
b1111111111111111010011 %"
1&
#530
0&
#535
b1111111111111111010010 %"
b111000 ."
1&
#540
0&
#545
b110111 ."
b1111111111111111010001 %"
1&
#550
0&
#555
b1111111111111111010000 %"
b110110 ."
1&
#560
0&
#565
b110101 ."
b1111111111111111001111 %"
1&
#570
0&
#575
b1111111111111111001110 %"
b110100 ."
1&
#580
0&
#585
b110011 ."
b1111111111111111001101 %"
1&
#590
0&
#595
b1111111111111111001100 %"
b110010 ."
1&
#600
0&
#605
b110001 ."
b1111111111111111001011 %"
1&
#610
0&
#615
b1111111111111111001010 %"
b110000 ."
1&
#620
0&
#625
b101111 ."
b1111111111111111001001 %"
1&
#630
0&
#635
b1111111111111111001000 %"
b101110 ."
1&
#640
0&
#645
b101101 ."
b1111111111111111000111 %"
1&
#650
0&
#655
b1111111111111111000110 %"
b101100 ."
1&
#660
0&
#665
b101011 ."
b1111111111111111000101 %"
1&
#670
0&
#675
b1111111111111111000100 %"
b101010 ."
1&
#680
0&
#685
b101001 ."
b1111111111111111000011 %"
1&
#690
0&
#695
b1111111111111111000010 %"
b101000 ."
1&
#700
0&
#705
b100111 ."
b1111111111111111000001 %"
1&
#710
0&
#715
b1111111111111111000000 %"
b100110 ."
1&
#720
0&
#725
b100101 ."
b1111111111111110111111 %"
1&
#730
0&
#735
b1111111111111110111110 %"
b100100 ."
1&
#740
0&
#745
b100011 ."
b1111111111111110111101 %"
1&
#750
0&
#755
b1111111111111110111100 %"
b100010 ."
1&
#760
0&
#765
b100001 ."
b1111111111111110111011 %"
1&
#770
0&
#775
b1111111111111110111010 %"
b100000 ."
1&
#780
0&
#785
b11111 ."
b1111111111111110111001 %"
1&
#790
0&
#795
b1111111111111110111000 %"
b11110 ."
1&
#800
0&
#805
b11101 ."
b1111111111111110110111 %"
1&
#810
0&
#815
b1111111111111110110110 %"
b11100 ."
1&
#820
0&
#825
b11011 ."
b1111111111111110110101 %"
1&
#830
0&
#835
b1111111111111110110100 %"
b11010 ."
1&
#840
0&
#845
b11001 ."
b1111111111111110110011 %"
1&
#850
0&
#855
b1111111111111110110010 %"
b11000 ."
1&
#860
0&
#865
b10111 ."
b1111111111111110110001 %"
1&
#870
0&
#875
b1111111111111110110000 %"
b10110 ."
1&
#880
0&
#885
b10101 ."
b1111111111111110101111 %"
1&
#890
0&
#895
b1111111111111110101110 %"
b10100 ."
1&
#900
0&
#905
b10011 ."
b1111111111111110101101 %"
1&
#910
0&
#915
b1111111111111110101100 %"
b10010 ."
1&
#920
0&
#925
b10001 ."
b1111111111111110101011 %"
1&
#930
0&
#935
b1111111111111110101010 %"
b10000 ."
1&
#940
0&
#945
b1111 ."
b1111111111111110101001 %"
1&
#950
0&
#955
b1111111111111110101000 %"
b1110 ."
1&
#960
0&
#965
b1101 ."
b1111111111111110100111 %"
1&
#970
0&
#975
b1111111111111110100110 %"
b1100 ."
1&
#980
0&
#985
b1011 ."
b1111111111111110100101 %"
1&
#990
0&
#995
b1111111111111110100100 %"
b1010 ."
1&
#1000
0&
#1005
b1001 ."
b1111111111111110100011 %"
1&
#1010
0&
#1015
b1111111111111110100010 %"
b1000 ."
1&
#1020
0&
#1025
b111 ."
b1111111111111110100001 %"
1&
#1030
0&
#1035
b1111111111111110100000 %"
b110 ."
1&
#1040
0&
#1045
b101 ."
b1111111111111110011111 %"
1&
#1050
0&
#1055
b1111111111111110011110 %"
b100 ."
1&
#1060
0&
#1065
b11 ."
b1111111111111110011101 %"
1&
#1070
0&
#1075
b1111111111111110011100 %"
b10 ."
1&
#1080
0&
#1085
b1 ."
b1111111111111110011011 %"
1&
#1090
0&
#1095
b1111111111111110011010 %"
12"
b0 ."
1&
#1100
0&
#1105
b1100011 ."
02"
b100000z0011000100000000xxxxxxxx D
0-
b100 1"
b10000001 -"
b1111111111111110011001 %"
1&
#1110
0&
#1115
b1111111111111110011000 %"
b1100010 ."
1&
#1120
0&
#1125
b1100001 ."
b1111111111111110010111 %"
1&
#1130
0&
#1135
b1111111111111110010110 %"
b1100000 ."
1&
#1140
0&
#1145
b1011111 ."
b1111111111111110010101 %"
1&
#1150
0&
#1155
b1111111111111110010100 %"
b1011110 ."
1&
#1160
0&
#1165
b1011101 ."
b1111111111111110010011 %"
1&
#1170
0&
#1175
b1111111111111110010010 %"
b1011100 ."
1&
#1180
0&
#1185
b1011011 ."
b1111111111111110010001 %"
1&
#1190
0&
#1195
b1111111111111110010000 %"
b1011010 ."
1&
#1200
0&
#1205
b1011001 ."
b1111111111111110001111 %"
1&
#1210
0&
#1215
b1111111111111110001110 %"
b1011000 ."
1&
#1220
0&
#1225
b1010111 ."
b1111111111111110001101 %"
1&
#1230
0&
#1235
b1111111111111110001100 %"
b1010110 ."
1&
#1240
0&
#1245
b1010101 ."
b1111111111111110001011 %"
1&
#1250
0&
#1255
b1111111111111110001010 %"
b1010100 ."
1&
#1260
0&
#1265
b1010011 ."
b1111111111111110001001 %"
1&
#1270
0&
#1275
b1111111111111110001000 %"
b1010010 ."
1&
#1280
0&
#1285
b1010001 ."
b1111111111111110000111 %"
1&
#1290
0&
#1295
b1111111111111110000110 %"
b1010000 ."
1&
#1300
0&
#1305
b1001111 ."
b1111111111111110000101 %"
1&
#1310
0&
#1315
b1111111111111110000100 %"
b1001110 ."
1&
#1320
0&
#1325
b1001101 ."
b1111111111111110000011 %"
1&
#1330
0&
#1335
b1111111111111110000010 %"
b1001100 ."
1&
#1340
0&
#1345
b1001011 ."
b1111111111111110000001 %"
1&
#1350
0&
#1355
b1111111111111110000000 %"
b1001010 ."
1&
#1360
0&
#1365
b1001001 ."
b1111111111111101111111 %"
1&
#1370
0&
#1375
b1111111111111101111110 %"
b1001000 ."
1&
#1380
0&
#1385
b1000111 ."
b1111111111111101111101 %"
1&
#1390
0&
#1395
b1111111111111101111100 %"
b1000110 ."
1&
#1400
0&
#1405
b1000101 ."
b1111111111111101111011 %"
1&
#1410
0&
#1415
b1111111111111101111010 %"
b1000100 ."
1&
#1420
0&
#1425
b1000011 ."
b1111111111111101111001 %"
1&
#1430
0&
#1435
b1111111111111101111000 %"
b1000010 ."
1&
#1440
0&
#1445
b1000001 ."
b1111111111111101110111 %"
1&
#1450
0&
#1455
b1111111111111101110110 %"
b1000000 ."
1&
#1460
0&
#1465
b111111 ."
b1111111111111101110101 %"
1&
#1470
0&
#1475
b1111111111111101110100 %"
b111110 ."
1&
#1480
0&
#1485
b111101 ."
b1111111111111101110011 %"
1&
#1490
0&
#1495
b1111111111111101110010 %"
b111100 ."
1&
#1500
0&
#1505
b111011 ."
b1111111111111101110001 %"
1&
#1510
0&
#1515
b1111111111111101110000 %"
b111010 ."
1&
#1520
0&
#1525
b111001 ."
b1111111111111101101111 %"
1&
#1530
0&
#1535
b1111111111111101101110 %"
b111000 ."
1&
#1540
0&
#1545
b110111 ."
b1111111111111101101101 %"
1&
#1550
0&
#1555
b1111111111111101101100 %"
b110110 ."
1&
#1560
0&
#1565
b110101 ."
b1111111111111101101011 %"
1&
#1570
0&
#1575
b1111111111111101101010 %"
b110100 ."
1&
#1580
0&
#1585
b110011 ."
b1111111111111101101001 %"
1&
#1590
0&
#1595
b1111111111111101101000 %"
b110010 ."
1&
#1600
0&
#1605
b110001 ."
b1111111111111101100111 %"
1&
#1610
0&
#1615
b1111111111111101100110 %"
b110000 ."
1&
#1620
0&
#1625
b101111 ."
b1111111111111101100101 %"
1&
#1630
0&
#1635
b1111111111111101100100 %"
b101110 ."
1&
#1640
0&
#1645
b101101 ."
b1111111111111101100011 %"
1&
#1650
0&
#1655
b1111111111111101100010 %"
b101100 ."
1&
#1660
0&
#1665
b101011 ."
b1111111111111101100001 %"
1&
#1670
0&
#1675
b1111111111111101100000 %"
b101010 ."
1&
#1680
0&
#1685
b101001 ."
b1111111111111101011111 %"
1&
#1690
0&
#1695
b1111111111111101011110 %"
b101000 ."
1&
#1700
0&
#1705
b100111 ."
b1111111111111101011101 %"
1&
#1710
0&
#1715
b1111111111111101011100 %"
b100110 ."
1&
#1720
0&
#1725
b100101 ."
b1111111111111101011011 %"
1&
#1730
0&
#1735
b1111111111111101011010 %"
b100100 ."
1&
#1740
0&
#1745
b100011 ."
b1111111111111101011001 %"
1&
#1750
0&
#1755
b1111111111111101011000 %"
b100010 ."
1&
#1760
0&
#1765
b100001 ."
b1111111111111101010111 %"
1&
#1770
0&
#1775
b1111111111111101010110 %"
b100000 ."
1&
#1780
0&
#1785
b11111 ."
b1111111111111101010101 %"
1&
#1790
0&
#1795
b1111111111111101010100 %"
b11110 ."
1&
#1800
0&
#1805
b11101 ."
b1111111111111101010011 %"
1&
#1810
0&
#1815
b1111111111111101010010 %"
b11100 ."
1&
#1820
0&
#1825
b11011 ."
b1111111111111101010001 %"
1&
#1830
0&
#1835
b1111111111111101010000 %"
b11010 ."
1&
#1840
0&
#1845
b11001 ."
b1111111111111101001111 %"
1&
#1850
0&
#1855
b1111111111111101001110 %"
b11000 ."
1&
#1860
0&
#1865
b10111 ."
b1111111111111101001101 %"
1&
#1870
0&
#1875
b1111111111111101001100 %"
b10110 ."
1&
#1880
0&
#1885
b10101 ."
b1111111111111101001011 %"
1&
#1890
0&
#1895
b1111111111111101001010 %"
b10100 ."
1&
#1900
0&
#1905
b10011 ."
b1111111111111101001001 %"
1&
#1910
0&
#1915
b1111111111111101001000 %"
b10010 ."
1&
#1920
0&
#1925
b10001 ."
b1111111111111101000111 %"
1&
#1930
0&
#1935
b1111111111111101000110 %"
b10000 ."
1&
#1940
0&
#1945
b1111 ."
b1111111111111101000101 %"
1&
#1950
0&
#1955
b1111111111111101000100 %"
b1110 ."
1&
#1960
0&
#1965
b1101 ."
b1111111111111101000011 %"
1&
#1970
0&
#1975
b1111111111111101000010 %"
b1100 ."
1&
#1980
0&
#1985
b1011 ."
b1111111111111101000001 %"
1&
#1990
0&
#1995
b1111111111111101000000 %"
b1010 ."
1&
